{
  "group": "temmieflakes",
  "type": "minecraft:crafting_shaped",
  "pattern": [
    "012",
    "345",
    "678"
  ],
  "key": {
    "0": {
      "item": "minecraft:wheat"
    },
    "1": {
      "item": "minecraft:dye",
      "data": 12
    },
    "2": {
      "item": "minecraft:wheat"
    },
    "3": {
      "item": "minecraft:dye",
      "data": 11
    },
    "4": {
      "item": "minecraft:golden_apple",
      "data": 32767
    },
    "5": {
      "item": "minecraft:dye",
      "data": 11
    },
    "6": {
      "item": "minecraft:wheat"
    },
    "7": {
      "item": "minecraft:dye",
      "data": 12
    },
    "8": {
      "item": "minecraft:wheat"
    }
  },
  "result": {
    "item": "temmieflakes:temmieflakes",
    "count": 2
  }
}